Abigail’s Data Visualization Blog - Groundhog Day Predictions
…
Tidying, wrangling, and joining the data

First I had to join the “groundhogs” and “predictions” datasets to combine the two into one dataset which will have information about the groundhogs as well as their predictions.

groundhogs_pred <- left_join(groundhogs, predictions, by = "id")
groundhogs_pred

# A tibble: 1,462 × 20
      id slug     shortname name  city  region country latitude longitude source
   <dbl> <chr>    <chr>     <chr> <chr> <chr>  <chr>      <dbl>     <dbl> <chr> 
 1     1 punxsut… Phil      Punx… Punx… Penns… USA         40.9     -79.0 https…
 2     1 punxsut… Phil      Punx… Punx… Penns… USA         40.9     -79.0 https…
 3     1 punxsut… Phil      Punx… Punx… Penns… USA         40.9     -79.0 https…
 4     1 punxsut… Phil      Punx… Punx… Penns… USA         40.9     -79.0 https…
 5     1 punxsut… Phil      Punx… Punx… Penns… USA         40.9     -79.0 https…
 6     1 punxsut… Phil      Punx… Punx… Penns… USA         40.9     -79.0 https…
 7     1 punxsut… Phil      Punx… Punx… Penns… USA         40.9     -79.0 https…
 8     1 punxsut… Phil      Punx… Punx… Penns… USA         40.9     -79.0 https…
 9     1 punxsut… Phil      Punx… Punx… Penns… USA         40.9     -79.0 https…
10     1 punxsut… Phil      Punx… Punx… Penns… USA         40.9     -79.0 https…
# ℹ 1,452 more rows
# ℹ 10 more variables: current_prediction <chr>, is_groundhog <lgl>,
#   type <chr>, active <lgl>, description <chr>, image <chr>,
#   predictions_count <dbl>, year <dbl>, shadow <lgl>, details <chr>
…
