Abigail’s Data Visualization Blog - Hollywood Age Gaps
…
library(tidyverse)
library(readr)
library(here)
library(modelr)
library(broom)
age_gaps <- read_csv(here("data/age_gaps.csv"))

Tidying and wrangling the data

For this I did not do a ton of tidying but, I wanted to mutate the character_1_gender so it made more sense. On the website, it is explained that character 1 is the older character, I thought that for the purpose of my model it would make more sense to alter the variable so that it is more clear what the variable is. Thus, I changed the variable of character_1_gender to gendergap, which shows the gender of the older character in the age gap.

tidyagegaps <- age_gaps |> mutate(gendergap = if_else(character_1_gender == "woman", true = "older woman", false = "older man")) |> relocate(gendergap) 
tidyagegaps

# A tibble: 1,155 × 14
   gendergap   movie_name     release_year director age_difference couple_number
   <chr>       <chr>                 <dbl> <chr>             <dbl>         <dbl>
 1 older woman Harold and Ma…         1971 Hal Ash…             52             1
 2 older man   Venus                  2006 Roger M…             50             1
 3 older man   The Quiet Ame…         2002 Phillip…             49             1
 4 older man   The Big Lebow…         1998 Joel Co…             45             1
 5 older man   Beginners              2010 Mike Mi…             43             1
 6 older man   Poison Ivy             1992 Katt Sh…             42             1
 7 older man   Whatever Works         2009 Woody A…             40             1
 8 older man   Entrapment             1999 Jon Ami…             39             1
 9 older man   Husbands and …         1992 Woody A…             38             1
10 older man   Magnolia               1999 Paul Th…             38             1
# ℹ 1,145 more rows
# ℹ 8 more variables: actor_1_name <chr>, actor_2_name <chr>,
#   character_1_gender <chr>, character_2_gender <chr>,
#   actor_1_birthdate <date>, actor_2_birthdate <date>, actor_1_age <dbl>,
#   actor_2_age <dbl>
…
The model shows that the y-intercept of the model is negative, with the release_year and actor_1_age coefficients both being positive, but the coefficients of both their interaction term and the gender gap with an older woman are both negative.

Next, I created a grid of the data, to create an augmented dataset which calculated the confidence intervals for the model.

gridmodtidy <- tidyagegaps |>
  data_grid(
    actor_1_age = seq_range(actor_1_age, n = 6),
    gendergap = c("older man", "older woman"),
    release_year = seq_range(release_year, n = 4)
  ) 
gridmodtidy

# A tibble: 48 × 3
   actor_1_age gendergap   release_year
         <dbl> <chr>              <dbl>
 1        18   older man           1935
 2        18   older man           1964
 3        18   older man           1993
 4        18   older man           2022
 5        18   older woman         1935
 6        18   older woman         1964
 7        18   older woman         1993
 8        18   older woman         2022
 9        30.6 older man           1935
10        30.6 older man           1964
# ℹ 38 more rows

aug_tidy <- augment(modtidy, newdata = gridmodtidy,
                     interval = "confidence")
aug_tidy

# A tibble: 48 × 6
   actor_1_age gendergap   release_year .fitted .lower .upper
         <dbl> <chr>              <dbl>   <dbl>  <dbl>  <dbl>
 1        18   older man           1935  -5.85   -9.62  -2.08
 2        18   older man           1964  -4.01   -6.25  -1.77
 3        18   older man           1993  -2.17   -3.13  -1.21
 4        18   older man           2022  -0.327  -1.74   1.08
 5        18   older woman         1935  -8.67  -12.5   -4.84
 6        18   older woman         1964  -6.83   -9.15  -4.52
 7        18   older woman         1993  -4.99   -6.07  -3.91
 8        18   older woman         2022  -3.15   -4.61  -1.69
 9        30.6 older man           1935   6.40    4.21   8.59
10        30.6 older man           1964   5.93    4.64   7.23
# ℹ 38 more rows
…
