Abigail’s Data Visualization Blog - Patterns in Global Refugee Migration
…
popualtion.csv: https://github.com/rfordatascience/tidytuesday/blob/master/data/2023/2023-08-22/readme.md

Read in the data and packages

library(tidyverse)
library(readr)
library(here)
library(tidygraph)
library(ggraph)
library(ggrepel)
refugees_df <- read_csv(here("data/population.csv"))
refugees_df

# A tibble: 64,809 × 16
    year coo_name   coo   coo_iso coa_name coa   coa_iso refugees asylum_seekers
   <dbl> <chr>      <chr> <chr>   <chr>    <chr> <chr>      <dbl>          <dbl>
 1  2010 Afghanist… AFG   AFG     Afghani… AFG   AFG            0              0
 2  2010 Iran (Isl… IRN   IRN     Afghani… AFG   AFG           30             21
 3  2010 Iraq       IRQ   IRQ     Afghani… AFG   AFG            6              0
 4  2010 Pakistan   PAK   PAK     Afghani… AFG   AFG         6398              9
 5  2010 Egypt      ARE   EGY     Albania  ALB   ALB            5              0
 6  2010 China      CHI   CHN     Albania  ALB   ALB            6              0
 7  2010 Palestini… GAZ   PSE     Albania  ALB   ALB            5              0
 8  2010 Iraq       IRQ   IRQ     Albania  ALB   ALB            5              0
 9  2010 Serbia an… SRB   SRB     Albania  ALB   ALB           49             20
10  2010 Türkiye    TUR   TUR     Albania  ALB   ALB            5              0
# ℹ 64,799 more rows
# ℹ 7 more variables: returned_refugees <dbl>, idps <dbl>, returned_idps <dbl>,
#   stateless <dbl>, ooc <dbl>, oip <dbl>, hst <dbl>
…
I then created the nodes data frame.

nodes <- refugees_clean |>
  pivot_longer(c(origin_country, asylum_country),
               names_to = "type",
               values_to = "country") |>
  distinct(country) |> 
  rename(label = country) |>
  filter(label %in% c(networksum |> pull(origincountry),
                      networksum |> pull(asylumcountry))) |>
  rowid_to_column("id")
nodes

# A tibble: 212 × 2
      id label                               
   <int> <chr>                               
 1     1 Afghanistan                         
 2     2 Iran (Islamic Rep. of)              
 3     3 Iraq                                
 4     4 Pakistan                            
 5     5 Egypt                               
 6     6 Albania                             
 7     7 China                               
 8     8 Palestinian                         
 9     9 Serbia and Kosovo: S/RES/1244 (1999)
10    10 Türkiye                             
# ℹ 202 more rows

Then the edges data frame.

edges <- left_join(networksum, nodes, by = join_by("origincountry" == label)) |>
  rename(from = "id") |>
  left_join(nodes, by = join_by("asylumcountry" == label)) |>
  rename(to = "id") |>
  ungroup() |>
  dplyr::select(to, from, n_countries)
edges

# A tibble: 6,952 × 3
      to  from n_countries
   <int> <int>       <int>
 1     1     1          13
 2     6     1           3
 3    12     1           1
 4    52     1           9
 5    53     1           6
 6    83     1          13
 7   122     1          13
 8    80     1          13
 9    54     1           5
10    85     1          13
# ℹ 6,942 more rows
…
I then created the nodes data frame.

nodes_noidps <- no_idps |>
  pivot_longer(c(origin_country, asylum_country),
               names_to = "type",
               values_to = "country") |>
  distinct(country) |> 
  rename(label = country) |>
  filter(label %in% c(sum_no_idps |> pull(origincountry),
                      sum_no_idps |> pull(asylumcountry))) |>
  rowid_to_column("id")
nodes_noidps

# A tibble: 212 × 2
      id label                               
   <int> <chr>                               
 1     1 Iran (Islamic Rep. of)              
 2     2 Afghanistan                         
 3     3 Iraq                                
 4     4 Pakistan                            
 5     5 Egypt                               
 6     6 Albania                             
 7     7 China                               
 8     8 Palestinian                         
 9     9 Serbia and Kosovo: S/RES/1244 (1999)
10    10 Türkiye                             
# ℹ 202 more rows

Then the edges data frame.

edges_noidps <- left_join(sum_no_idps, nodes_noidps, by = join_by("origincountry" == label)) |>
  rename(from = "id") |>
  left_join(nodes, by = join_by("asylumcountry" == label)) |>
  rename(to = "id") |>
  ungroup() |>
  dplyr::select(to, from, n_countries)
edges_noidps

# A tibble: 6,871 × 3
      to  from n_countries
   <int> <int>       <int>
 1     6     2           3
 2    12     2           1
 3    52     2           9
 4    53     2           6
 5    83     2          13
 6   122     2          13
 7    80     2          13
 8    54     2           5
 9    85     2          13
10   132     2          13
# ℹ 6,861 more rows
…
